
I89_1 = {
	slot = 1
	generic = no
	ai = yes
	has_country_shield = yes
	potential = {
		tag = I89
	}
	
	I89_the_burgeoning_storm = {
		icon = mission_conquer_air
		required_missions = { }
		position = 1
		
		trigger = {
			custom_trigger_tooltip = {
				tooltip = win_battle_centaur_150_tooltip
				check_variable = {
					which = nbCharge
					value = 150
				}
			}
		}
		
		effect = {
			add_country_modifier = {
				name = centaur_storm_1
				duration = -1
			}
		}
	}
	
	I89_the_growing_storm = {
		icon = mission_conquer_air
		required_missions = { 
			I89_the_burgeoning_storm
		}
		position = 2
		
		trigger = {
			custom_trigger_tooltip = {
				tooltip = win_battle_centaur_225_tooltip
				check_variable = {
					which = nbCharge
					value = 225
				}
			}
		}
		
		effect = {
			remove_country_modifier = centaur_storm_1
			add_country_modifier = {
				name = centaur_storm_2
				duration = -1
			}
		}
	}
	
	I89_the_expanding_storm = {
		icon = mission_conquer_air
		required_missions = { 
			I89_the_growing_storm
		}
		position = 3
		
		trigger = {
			custom_trigger_tooltip = {
				tooltip = win_battle_centaur_325_tooltip
				check_variable = {
					which = nbCharge
					value = 325
				}
			}
		}
		
		effect = {
			remove_country_modifier = centaur_storm_2
			add_country_modifier = {
				name = centaur_storm_3
				duration = -1
			}
		}
	}
	
	I89_the_spreading_storm = {
		icon = mission_conquer_air
		required_missions = { 
			I89_the_expanding_storm
		}
		position = 4
		
		trigger = {
			custom_trigger_tooltip = {
				tooltip = win_battle_centaur_450_tooltip
				check_variable = {
					which = nbCharge
					value = 450
				}
			}
		}
		
		effect = {
			remove_country_modifier = centaur_storm_3
			add_country_modifier = {
				name = centaur_storm_4
				duration = -1
			}
		}
	}
	
	I89_the_thriving_storm = {
		icon = mission_conquer_air
		required_missions = { 
			I89_the_spreading_storm
		}
		position = 5
		
		trigger = {
			custom_trigger_tooltip = {
				tooltip = win_battle_centaur_575_tooltip
				check_variable = {
					which = nbCharge
					value = 575
				}
			}
		}
		
		effect = {
			remove_country_modifier = centaur_storm_4
			add_country_modifier = {
				name = centaur_storm_5
				duration = -1
			}
		}
	}
	
	I89_the_rampaging_storm = {
		icon = mission_conquer_air
		required_missions = { 
			I89_the_thriving_storm
		}
		position = 6
		
		trigger = {
			custom_trigger_tooltip = {
				tooltip = win_battle_centaur_750_tooltip
				check_variable = {
					which = nbCharge
					value = 750
				}
			}
		}
		
		effect = {
			remove_country_modifier = centaur_storm_5
			add_country_modifier = {
				name = centaur_storm_6
				duration = -1
			}
		}
	}
	
	I89_the_eternal_storm = {
		icon = mission_conquer_air
		required_missions = { 
			I89_the_rampaging_storm
		}
		position = 7
		
		trigger = {
			custom_trigger_tooltip = {
				tooltip = win_battle_centaur_1000_tooltip
				check_variable = {
					which = nbCharge
					value = 1000
				}
			}
		}
		
		effect = {
			remove_country_modifier = centaur_storm_6
			add_country_modifier = {
				name = centaur_storm_7
				duration = -1
			}
		}
	}
	
	I89_stallions_of_war = {
		icon = mission_conquer_maharashtra
		required_missions = { 
		}
		position = 8
		
		trigger = {
			custom_trigger_tooltip = {
				tooltip = win_battle_centaur_500_tooltip
				check_variable = {
					which = nbCharge
					value = 500
				}
			}
			
			custom_trigger_tooltip = {
				tooltip = win_rate_centaur_85_tooltip
				check_variable = {
					which = battleWinRate
					value = 85
				}
			}
		}
		
		effect = {
			add_country_modifier = {
				name = stallions_of_war
				duration = -1
			}
			country_event = { id = centaur.9 }
		}
	}
}

I89_2 = {
	slot = 2
	generic = no
	ai = yes
	has_country_shield = yes
	potential = {
		tag = I89
	}
	
	I89_just_a_lake_stories = {
		icon = mission_caribbean_cn
		required_missions = {
			I89_eye_of_the_storm
		}
		position = 2
		
		provinces_to_highlight = {
			OR = {
				province_id = 5123
				province_id = 5138
			}
			NOT = { country_or_subject_holds = ROOT }
		}
		
		trigger = {
			OR = {
				owns_or_subject_of = 5123
				owns_or_subject_of = 5138
			}
		}
		
		effect = {
			custom_tooltip = centaur_unlock_cb_tooltip
			hidden_effect = { set_country_flag = centaur_special_cb }
		}
	}
	
	I89_wealth_requisition = {
		icon = mission_abu_saids_dream
		required_missions = {
			I89_just_a_lake_stories
		}
		position = 3
		
		provinces_to_highlight = {
			has_terrain = city_terrain
			OR = {
				region = southern_isles_region
				region = northern_isles_region
			}
			NOT = { country_or_subject_holds = ROOT }
		}
		
		trigger = {
			calc_true_if = {
				all_province = {
					has_terrain = city_terrain
					country_or_subject_holds = ROOT
					OR = {
						region = southern_isles_region
						region = northern_isles_region
					}
				}
				amount = 5
			}
		}
		
		effect = {
			capital_scope = {
				area = {
					add_base_production = 1
					add_base_tax = 2
					add_base_manpower = 2
				}
				add_base_tax = 1
				add_base_production = 1
				add_base_manpower = 1
			}
			every_province = {
				limit = {
					has_terrain = city_terrain
					country_or_vassal_holds = ROOT
					OR = {
						region = southern_isles_region
						region = northern_isles_region
					}
				}
				add_base_tax = -2
				add_base_production = -2
				add_base_manpower = -1
			}
		}
	}
	
	I89_southern_submission = {
		icon = mission_guarded_market
		required_missions = {
			I89_wealth_requisition
		}
		position = 4
		
		provinces_to_highlight = {
			region = southern_isles_region
			NOT = { country_or_subject_holds = ROOT }
		}
		
		trigger = {
			OR = {
				southern_isles_region = {
					type = all
					country_or_subject_holds = ROOT
				}
				custom_trigger_tooltip = {
					tooltip = centaur_disband_the_federation_tooltip
					has_country_flag = disbanded_lake_federation
				}
			}
		}
		
		effect = {
			add_prestige = 20
			add_country_modifier = {
				name = centaur_southern_domination
				duration = 36500
			}
		}
	}
	
	I89_disband_the_federation = {
		icon = mission_head_on_spike
		required_missions = {
			I89_southern_submission
		}
		position = 5
		
		provinces_to_highlight = {
			OR = {
				region = southern_isles_region
				region = northern_isles_region
			}
			NOT = { country_or_subject_holds = ROOT }
		}
		
		trigger = {
			if = {
				limit = { NOT = { has_global_flag = lake_federation_formed } }
				custom_trigger_tooltip = {
					tooltip = centaur_disband_the_federation_tooltip
					has_country_flag = disbanded_lake_federation
				}
			}
			else = { #If federation has united, own the isles
				southern_isles_region = {
					type = all
					country_or_subject_holds = ROOT
				}
				northern_isles_region = {
					type = all
					country_or_subject_holds = ROOT
				}
			}
		}
		
		effect = {
			add_prestige = 20
			if = {
				limit = { NOT = { has_country_flag = centaur_no_zeal } }
				custom_tooltip = centaur_zeal_50_tooltip
				hidden_effect = { change_variable = { centaur_zeal = 50 } }
			}
		}
	}
	
	I89_bulwar_proper = {
		icon = mission_traverse_the_sahara
		required_missions = {
			I89_way_back_home
		}
		position = 6
		
		provinces_to_highlight = {
			OR = {
				region = bulwar_proper_region
				region = harpy_hills_region
			}
			NOT = { owned_by = ROOT }
		}
		
		trigger = {
			num_of_owned_provinces_with = {
				OR = {
					region = bulwar_proper_region
					region = harpy_hills_region
				}
				value = 50
			}
		}
		
		effect = {
			add_prestige = 15
			add_mil_power = 250
			bulwar_superregion = {
				limit = { NOT = { country_or_non_sovereign_subject_holds = ROOT } }
				add_claim = ROOT
			}
		}
	}
	
	I89_under_the_sun = {
		icon = mission_burning_castle
		required_missions = {
			I89_bulwar_proper
		}
		position = 7
		
		provinces_to_highlight = {
			superregion = bulwar_superregion
			NOT = { owned_by = ROOT }
		}
		
		trigger = {
			num_of_owned_provinces_with = {
				superregion = bulwar_superregion
				value = 150
			}
		}
		
		effect = {
			add_prestige = 20
			add_mil_power = 350
			if = {
				limit = { NOT = { has_country_flag = centaur_no_zeal } }
				custom_tooltip = centaur_zeal_20_tooltip
				hidden_effect = { change_variable = { centaur_zeal = 20 } }
			}
		}
	}
	
	I89_divine_wind = {
		icon = encroach_on_the_germans
		required_missions = {
		}
		position = 8
		
		provinces_to_highlight = {
		}
		
		trigger = {
			hidden_trigger = { ai = no }
			num_of_continents = 4
			custom_trigger_tooltip = {
				tooltip = war_won_centaur_75_tooltip
				check_variable = { nbWarWon = 75 }
			}
		}
		
		effect = {
			add_country_modifier = {
				name = divine_wind
				duration = -1
			}
		}
	}
}

I89_3 = {
	slot = 3
	generic = no
	ai = yes
	has_country_shield = yes
	potential = {
		tag = I89
	}
	
	I89_eye_of_the_storm = {
		icon = mission_nomad
		required_missions = {
		}
		position = 1
		
		trigger = {
			mil_power = 100
			adm_power = 100
			dip_power = 100
		}
		
		effect = {
			if = {
				limit = { ai = no }
				if = {
					limit = { NOT = { has_country_flag = centaur_no_zeal } }
					custom_tooltip = centaur_zeal_25_tooltip
					hidden_effect = { change_variable = { centaur_zeal = 25 } }
				}
			}
			else = {
				if = {
					limit = { NOT = { has_country_flag = centaur_no_zeal } }
					hidden_effect = { change_variable = { centaur_zeal = 50 } }
				}
			}
			add_mil_power = -100
			add_dip_power = -100
			add_adm_power = -100
		}
	}
	
	I89_subjugate_the_ogre = {
		icon = mission_order_in_the_domain
		required_missions = {
			I89_eye_of_the_storm
		}
		position = 2
		
		provinces_to_highlight = {
			region = ogre_mountains_region
			NOT = { country_or_subject_holds = ROOT }
		}
		
		trigger = {
			ogre_mountains_region = {
				type = all
				country_or_subject_holds = ROOT
			}
		}
		
		effect = {
			add_prestige = 15
			if = {
				limit = { NOT = { has_country_flag = centaur_no_zeal } }
				custom_tooltip = centaur_zeal_10_tooltip
				hidden_effect = { change_variable = { centaur_zeal = 10 } }
			}
		}
	}
	
	I89_a_lonely_oasis = {
		icon = mission_portuguese_interference
		required_missions = {
			I89_consolidate_our_holdings
		}
		position = 3
		
		provinces_to_highlight = {
			region = serpent_gift_region
			NOT = { owned_by = ROOT }
		}
		
		trigger = {
			serpent_gift_region = {
				type = all
				owned_by = ROOT
			}
		}
		
		effect = {
			add_prestige = 15
			invaders_pass_area  = {
				add_permanent_claim = ROOT
			}
		}
	}
	
	I89_way_back_home = {
		icon = mission_potosi_silver
		required_missions = {
			I89_a_lonely_oasis
		}
		position = 5
		
		provinces_to_highlight = {
			area = invaders_pass_area 
			NOT = { owned_by = ROOT }
		}
		
		trigger = {
			invaders_pass_area  = {
				type = all
				owned_by = ROOT
			}
		}
		
		effect = {
			add_prestige = 15
			nephevis_tears_area  = {
				add_permanent_claim = ROOT
			}
			jorkad_lake_area  = {
				add_permanent_claim = ROOT
			}
		}
	}
	
	I89_ancestor_home = {
		icon = mission_alone_in_the_forest
		required_missions = {
			I89_way_back_home
		}
		position = 6
		
		provinces_to_highlight = {
			superregion = deepwoods_superregion
			NOT = { owned_by = ROOT }
		}
		
		trigger = {
			num_of_owned_provinces_with = {
				superregion = deepwoods_superregion
				value = 50
			}
		}
		
		effect = {
			add_prestige = 20
			add_mil_power = 200
			if = {
				limit = { NOT = { has_country_flag = centaur_no_zeal } }
				custom_tooltip = centaur_zeal_15_tooltip
				hidden_effect = { change_variable = { centaur_zeal = 15 } }
			}
		}
	}
}

I89_4 = {
	slot = 4
	generic = no
	ai = yes
	has_country_shield = yes
	potential = {
		tag = I89
	}
	
	I89_consolidate_our_holdings = {
		icon = mission_arabian_fort
		required_missions = {
			I89_eye_of_the_storm
		}
		position = 2
		
		provinces_to_highlight = {
			OR = {
				region = east_forbidden_plains_region
				region = west_forbidden_plains_region
			}
			NOT = { owned_by = ROOT }
		}
		
		trigger = {
			num_of_owned_provinces_with = {
				OR = {
					region = east_forbidden_plains_region
					region = west_forbidden_plains_region
				}
				value = 50
			}
		}
		
		effect = {
			if = {
				limit = { NOT = { has_country_flag = centaur_no_zeal } }
				custom_tooltip = centaur_zeal_10_tooltip
				hidden_effect = { change_variable = { centaur_zeal = 10 } }
			}
			east_forbidden_plains_region = {
				add_permanent_claim = ROOT
			}
			west_forbidden_plains_region = {
				add_permanent_claim = ROOT
			}
			yyl_moista_region = {
				add_permanent_claim = ROOT
			}
		}
	}
	
	I89_back_on_our_track = {
		icon = mission_conquer_malwa_bah
		required_missions = {
			I89_consolidate_our_holdings
		}
		position = 3
		
		provinces_to_highlight = {
			region = yyl_moista_region
			NOT = { owned_by = ROOT }
		}
		
		trigger = {
			num_of_owned_provinces_with = {
				region = yyl_moista_region
				value = 15
			}
		}
		
		effect = {
			add_country_modifier = {
				name = centaur_expansion
				duration = 18250
			}
		}
	}
	
	I89_the_northern_pass = {
		icon = mission_duel_snow
		required_missions = {
			I89_back_on_our_track
		}
		position = 4
		
		provinces_to_highlight = {
			region = northern_pass_region
			NOT = { owned_by = ROOT }
		}
		
		trigger = {
			num_of_owned_provinces_with = {
				region = northern_pass_region
				value = 20
			}
		}
		
		effect = {
			add_prestige = 15
			add_mil_power = 100
			southern_giants_tears_area = {
				add_permanent_claim = ROOT
			}
			vrorenwall_area = {
				add_permanent_claim = ROOT
			}
			ebonmarck_area = {
				add_permanent_claim = ROOT
			}
		}
	}
	
	I89_deja_vu = {
		icon = mission_invade_the_deccan_ori
		required_missions = {
			I89_the_northern_pass
		}
		position = 5
		
		provinces_to_highlight = {
			OR = {
				area = southern_giants_tears_area
				area = vrorenwall_area
				area = ebonmarck_area
			}
			NOT = { owned_by = ROOT }
		}
		
		trigger = {
			southern_giants_tears_area = {
				type = all
				owned_by = ROOT
			}
			vrorenwall_area = {
				type = all
				owned_by = ROOT
			}
			ebonmarck_area = {
				type = all
				owned_by = ROOT
			}
		}
		
		effect = {
			add_prestige = 15
			west_castanor_region = {
				add_claim = ROOT
			}
			inner_castanor_region = {
				add_claim = ROOT
			}
		}
	}
	
	I89_break_castan_spine = {
		icon = mission_destroyed_city
		required_missions = {
			I89_deja_vu
		}
		position = 6
		
		provinces_to_highlight = {
			OR = {
				region = west_castanor_region
				region = inner_castanor_region
			}
			NOT = { owned_by = ROOT }
		}
		
		trigger = {
			num_of_owned_provinces_with = {
				OR = {
					region = west_castanor_region
					region = inner_castanor_region
				}
				value = 50
			}
		}
		
		effect = {
			add_prestige = 20
			add_mil_power = 250
			if = {
				limit = { NOT = { has_country_flag = centaur_no_zeal } }
				custom_tooltip = centaur_zeal_15_tooltip
				hidden_effect = { change_variable = { centaur_zeal = 15 } }
			}
		}
	}
	
	I89_the_centaur_wrath = {
		icon = mission_subdue_rajputana
		required_missions = {
			I89_break_castan_spine
			I89_ancestor_home
		}
		position = 6
		
		provinces_to_highlight = {
			OR = {
				region = west_castanor_region
				region = inner_castanor_region
				region = south_castanor_region
			}
			NOT = { owned_by = ROOT }
		}
		
		trigger = {
			num_of_owned_provinces_with = {
				OR = {
					region = west_castanor_region
					region = inner_castanor_region
					region = south_castanor_region
				}
				value = 150
			}
		}
		
		effect = {
			add_prestige = 25
			add_mil_power = 350
			if = {
				limit = { NOT = { has_country_flag = centaur_no_zeal } }
				custom_tooltip = centaur_zeal_25_tooltip
				hidden_effect = { change_variable = { centaur_zeal = 25 } }
			}
			country_event = { id = centaur.10 }
		}
	}
}

I89_5 = {
	slot = 5
	generic = no
	ai = yes
	has_country_shield = yes
	potential = {
		tag = I89
	}
	
	I89_face_the_desert_elves = {
		icon = mission_subdue_rajputana
		required_missions = {
			I89_consolidate_our_holdings
		}
		position = 3
		
		trigger = {
			has_global_modifier_value = {
				which = cavalry_power
				value = 0.3
			}
		}
		
		effect = {
			if = {
				limit = { NOT = { has_country_flag = centaur_no_zeal } }
				custom_tooltip = centaur_zeal_5_tooltip
				hidden_effect = { change_variable = { centaur_zeal = 5 } }
			}
			far_salahad_region = {
				add_permanent_claim = ROOT
			}
		}
	}
	
	I89_twilight = {
		icon = mission_steppe_warriors
		required_missions = {
			I89_face_the_desert_elves
		}
		position = 4
		
		provinces_to_highlight = {
			region = far_salahad_region
			NOT = { owned_by = ROOT }
		}
		
		trigger = {
			num_of_owned_provinces_with = {
				region = far_salahad_region
				value = 15
			}
		}
		
		effect = {
			add_prestige = 10
		}
	}
	
	I89_the_tiger_pride = {
		icon = mission_conquer_bengal_dlh
		required_missions = {
			I89_twilight
		}
		position = 5
		
		provinces_to_highlight = {
			superregion = rahen_superregion
			NOT = { owned_by = ROOT }
		}
		
		trigger = {
			num_of_owned_provinces_with = {
				superregion = rahen_superregion
				value = 150
			}
		}
		
		effect = {
			if = {
				limit = { NOT = { has_country_flag = centaur_no_zeal } }
				custom_tooltip = centaur_zeal_25_tooltip
				hidden_effect = { change_variable = { centaur_zeal = 25 } }
			}
		}
	}
	
	I89_under_one_khan = {
		icon = mission_conquer_alexandria
		required_missions = {
		}
		position = 6
		
		trigger = {
			custom_trigger_tooltip = {
				tooltip = under_one_khan_tooltip
				NOT = { any_known_country = { has_country_modifier = centaur_administration } }
			}
		}
		
		effect = {
			add_country_modifier = {
				name = centaur_under_one_khan
				duration = -1
			}
		}
	}
	
	I89_the_more_the_merrier = {
		icon = mission_heated_battle
		required_missions = {
			I89_under_one_khan
		}
		position = 7
		
		trigger = {
			is_in_war = {
				defender_leader = ROOT
				casus_belli = cb_super_badboy
			}
		}
		
		effect = {
			add_country_modifier = {
				name = centaur_the_more_the_merrier
				duration = -1
			}
		}
	}
	
	I89_the_ever_growing_hoof = {
		icon = mission_horse_siege
		required_missions = {
			I89_the_more_the_merrier
		}
		position = 8
		
		trigger = {
			overextension_percentage = 2
		}
		
		effect = {
			add_country_modifier = {
				name = centaur_the_ever_growing_hoof
				duration = -1
			}
			if = {
				limit = { NOT = { has_country_flag = centaur_no_zeal } }
				custom_tooltip = centaur_zeal_15_tooltip
				hidden_effect = { change_variable = { centaur_zeal = 15 } }
			}
		}
	}
}

I89_battle_1 = {
	slot = 1
	generic = no
	ai = yes
	has_country_shield = yes
	potential = {
		tag = I89
	}
	
	I89_four_legged_tide = {
		icon = mission_skull
		position = 9
		
		trigger = {
			custom_trigger_tooltip = {
				tooltip = centaur_battle_orc_tooltip
				check_variable = { nbBattleOrc = 30 }
			}
		}
		
		effect = {
			add_country_modifier = {
				name = centaur_battle_orc
				duration = -1
			}
		}
	}
	
	I89_failed_race = {
		icon = mission_skull
		position = 10
		
		trigger = {
			custom_trigger_tooltip = {
				tooltip = centaur_battle_goblin_tooltip
				check_variable = { nbBattleGoblin = 25 }
			}
		}
		
		effect = {
			add_country_modifier = {
				name = centaur_battle_goblin
				duration = -1
			}
		}
	}
}

I89_battle_2 = {
	slot = 2
	generic = no
	ai = yes
	has_country_shield = yes
	potential = {
		tag = I89
	}
	
	I89_slow_target = {
		icon = mission_skull
		position = 9
		
		trigger = {
			custom_trigger_tooltip = {
				tooltip = centaur_battle_ogre_tooltip
				check_variable = { nbBattleOgre = 30 }
			}
		}
		
		effect = {
			add_country_modifier = {
				name = centaur_battle_ogre
				duration = -1
			}
		}
	}
	
	I89_everything_in_the_brain = {
		icon = mission_skull
		position = 10
		
		trigger = {
			custom_trigger_tooltip = {
				tooltip = centaur_battle_gnome_tooltip
				check_variable = { nbBattleGnome = 20 }
			}
		}
		
		effect = {
			add_country_modifier = {
				name = centaur_battle_gnome
				duration = -1
			}
		}
	}
}

I89_battle_3 = {
	slot = 3
	generic = no
	ai = yes
	has_country_shield = yes
	potential = {
		tag = I89
	}
	
	I89_years_of_age = {
		icon = mission_skull
		position = 9
		
		trigger = {
			custom_trigger_tooltip = {
				tooltip = centaur_battle_elf_tooltip
				check_variable = { nbBattleElf = 75 }
			}
		}
		
		effect = {
			add_country_modifier = {
				name = centaur_battle_elf
				duration = -1
			}
		}
	}
	
	I89_with_one_hoof = {
		icon = mission_skull
		position = 10
		
		trigger = {
			custom_trigger_tooltip = {
				tooltip = centaur_battle_kobold_tooltip
				check_variable = { nbBattleKobold = 10 }
			}
		}
		
		effect = {
			add_country_modifier = {
				name = centaur_battle_kobold
				duration = -1
			}
		}
	}
}

I89_battle_4 = {
	slot = 4
	generic = no
	ai = yes
	has_country_shield = yes
	potential = {
		tag = I89
	}
	
	I89_stay_in_your_mountains = {
		icon = mission_skull
		position = 9
		
		trigger = {
			custom_trigger_tooltip = {
				tooltip = centaur_battle_dwarf_tooltip
				check_variable = { nbBattleDwarf = 75 }
			}
		}
		
		effect = {
			add_country_modifier = {
				name = centaur_battle_dwarf
				duration = -1
			}
		}
	}
	
	I89_rumble_in_the_jungle = {
		icon = mission_skull
		position = 10
		
		trigger = {
			custom_trigger_tooltip = {
				tooltip = centaur_battle_harimari_tooltip
				check_variable = { nbBattleHarimari = 50 }
			}
		}
		
		effect = {
			add_country_modifier = {
				name = centaur_battle_harimari
				duration = -1
			}
		}
	}
}

I89_battle_5 = {
	slot = 5
	generic = no
	ai = yes
	has_country_shield = yes
	potential = {
		tag = I89
	}
	
	I89_by_the_halberd = {
		icon = mission_skull
		position = 9
		
		trigger = {
			custom_trigger_tooltip = {
				tooltip = centaur_battle_human_tooltip
				check_variable = { nbBattleHuman = 200 }
			}
		}
		
		effect = {
			add_country_modifier = {
				name = centaur_battle_human
				duration = -1
			}
		}
	}
	
	I89_army_without_state = {
		icon = mission_skull
		position = 10
		
		trigger = {
			custom_trigger_tooltip = {
				tooltip = centaur_battle_hobgoblin_tooltip
				check_variable = { nbBattleHobgoblin = 50 }
			}
		}
		
		effect = {
			add_country_modifier = {
				name = centaur_battle_hobgoblin
				duration = -1
			}
		}
	}
}
