

# events for kheionai death winds & warding
namespace = kheionai

# death wind event
country_event = {
	id = kheionai.1
	title = kheionai.1.t
	desc = kheionai.1.d
	picture = WOUNDED_SOLDIERS_eventPicture

	trigger = {
		NOT = { has_country_modifier = recent_kaydhano_wind }
		any_owned_province = {
			region = alecand_region
		}
	}

	mean_time_to_happen = {
		days = 3650
	}

	immediate = {
		hidden_effect = {
			add_country_modifier = {
				name = recent_kaydhano_wind
				duration = 3650
				hidden = yes
			}
			every_owned_province = {
				limit = {
					region = alecand_region
					NOT = { has_province_modifier = kheionai_warded_city}
				}
				if = {
					limit = {
						province_group = east_alecand
					}
					add_province_modifier = {
						name = deadly_kaydhano_winds
						duration = 365
					}
					add_devastation = 5
					
					add_province_modifier = {
					    name = lack_of_ward
					duration = 365
				    }
				}
				if = {
					limit = {
						NOT = { province_group = east_alecand }
					}
					add_province_modifier = {
						name = lesser_kaydhano_winds
						duration = 365
					}
					add_devastation = 2
					
					add_permanent_province_modifier = {
					    name = lesser_lack_of_ward
					duration = 365
				    }
				}	
			}
			
			every_neighbor_country = {
				country_event = {
					id = kheionai.1
				}
			}
		}
	}

	option = {
		name = kheionai.1.a
		custom_tooltip = deathwind_tooltip
	}
}


#generate warding on forts
country_event = {
	id = kheionai.2
	title = kheionai.2.t
	desc = kheionai.2.d
	picture = BIG_BOOK_eventPicture
	
	is_triggered_only = yes

	trigger = {
		any_owned_province = {
			region = alecand_region
			NOT = { has_province_modifier = kheionai_warded_city }
			fort_level = 1
		}
	}

	immediate = {
		hidden_effect = {
			every_owned_province = {
				limit = {
					region = alecand_region
					NOT = { has_province_modifier = kheionai_warded_city }
					fort_level = 1
				}
				if = {
					limit = {
						owner = { #prevent eltibhari from creating warded cities
							NOT = { culture_group = eltibhari_ruinborn_elf } 
						}
					}
					add_permanent_province_modifier = {
						name = kheionai_warded_city
						duration = -1
					}
				}
				if = {
					limit = {
						has_province_modifier = lack_of_ward
					}
					remove_province_modifier = lack_of_ward
				}
			}
		}
	}

	option = {
		name = kheionai.1.a
		tooltip = {
			every_owned_province = {
				limit = {
					region = alecand_region
					NOT = { has_province_modifier = kheionai_warded_city }
					fort_level = 1
				}
				if = {
					limit = {
						owner = { #prevent eltibhari from creating warded cities
							NOT = { culture_group = eltibhari_ruinborn_elf } 
						}
					}
					add_permanent_province_modifier = {
						name = kheionai_warded_city
						duration = -1
					}
				}
				if = {
					limit = {
						has_province_modifier = lack_of_ward
					}
					remove_province_modifier = lack_of_ward
				}
			}
		}
	}
}


# set unwarded provinces -- TO DO set this in history/provinces as well
#country_event = {
#	id = kheionai.3
#	title = kheionai.3.t
#	desc = kheionai.3.d
#	picture = WOUNDED_SOLDIERS_eventPicture
#
#	is_triggered_only = yes
#	hidden = yes
#
#	trigger = {
#		any_owned_province = {
#			region = alecand_region
#			OR = {
#				NOT = { has_province_modifier = lack_of_ward }
#				NOT = { has_province_modifier = kheionai_warded_city }
#			}
#			
#		}
#	}
#
#	immediate = {
#		every_owned_province = {
#			limit = {
#				region = alecand_region
#				NOT = { has_province_modifier = kheionai_warded_city }
#				NOT = { has_province_modifier = lack_of_ward }
#			}
#			if = {
#				limit = {
#					province_group = east_alecand
#				}
#				add_permanent_province_modifier = {
#					name = lack_of_ward
#					duration = -1
#				}
#			}
#			if = {
#				limit = {
#					NOT = { province_group = east_alecand }
#				}
#				add_permanent_province_modifier = {
#					name = lesser_lack_of_ward
#					duration = -1
#				}
#			}
#		}
#	}
#
#	option = {
#		name = kheionai.3.a
#	}
#}

# remove lack of ward on newly warded cities
country_event = {
	id = kheionai.4
	title = kheionai.4.t
	desc = kheionai.4.d
	picture = WOUNDED_SOLDIERS_eventPicture
	
	is_triggered_only = yes
	hidden = yes

	trigger = {
	    OR = {
		    any_owned_province = {
			    region = alecand_region
			    AND = {
				    has_province_modifier = lack_of_ward
				    has_province_modifier = kheionai_warded_city
			    }
		    }
			any_owned_province = {
			    region = alecand_region
			    AND = {
				    has_province_modifier = lesser_lack_of_ward
				    has_province_modifier = kheionai_warded_city
			    }
		    }
		}	
	}

	immediate = {
		every_owned_province = {
			limit = {
				region = alecand_region
				has_province_modifier = kheionai_warded_city
				has_province_modifier = lack_of_ward
			}
			if = {
				limit = {
					province_group = east_alecand
				}
				remove_province_modifier = lack_of_ward
			}
			if = {
				limit = {
					NOT = { province_group = east_alecand }
				}
				remove_province_modifier = lesser_lack_of_ward
			}
		}
	}

	option = {
		name = kheionai.4.a
	}
}

#random flavour events

#enemy damages warding
country_event = {
	id = kheionai.5
	title = kheionai.5.t
	desc = kheionai.5.d
	picture = ASSASSINATION_eventPicture

	trigger = {
		any_owned_province = {
			region = alecand_region
			has_province_modifier = kheionai_warded_city
		}
		any_enemy_country = {
			culture_group = kheionai_ruinborn_elf
		}
	}

	mean_time_to_happen = {
		years = 10
	}

	immediate = {
		hidden_effect = {
			random_owned_province = {
				limit = {
					region = alecand_region
					has_province_modifier = kheionai_warded_city
				}
				add_province_modifier = {
					name = damaged_warding
					duration = 365
				}
				add_devastation = 5
			}
			random_enemy_country = {
				save_event_target_as = enemy_country
			}
		}
	}

	option = { #bastards
		name = kheionai.5.a
		tooltip = {
			random_owned_province = {
				limit = {
					has_province_modifier = damaged_warding
				}
				add_province_modifier = {
					name = damaged_warding
					duration = 365
				}
				add_devastation = 5
			}
		}
		add_opinion ={
			who = event_target:enemy_country
			modifier = damaged_warding
		}
	}
}

# Culture ties weakened - Kheionai
country_event = {
	id = kheionai.6
	title = kheionai.6.t
	desc = kheionai.6.d
	picture = EUROPEAN_REFUGEES_eventPicture
	
	trigger = {
		#has_country_flag = 
		NOT = { tag = G52 } #Ameion
		culture_group = kheionai_ruinborn_elf
		capital_scope = {
			NOT = { region = alecand_region }
		}
		NOT = { has_country_flag = new_kheionai_culture }
		NOT = { has_country_flag = no_formable_culture_shift }
		
		is_at_war = no
		is_vassal = no
	}
	
	mean_time_to_happen = {
		months = 200
		modifier = {
			factor = 0.7
			stability = 1
		}
		modifier = {
			factor = 0.25
			num_of_cities = 10
		}
		modifier = {
			factor = 0.1
			in_golden_age = yes
		}
	}
	
	option = { # Empkeios
		name = kheionai.6.a
		trigger = {
			OR = {
				tag = G53
				was_tag = G53
			}
		}
		
		ai_chance = {
			factor = 1000
		}
		
		hidden_effect = {
			every_core_province = { 
				limit = {
					culture_group = ROOT
				}
				change_culture = empkhebhen
			}
		}
		
		if = {
			limit = { ruler_culture = ROOT }
			set_ruler_culture = empkhebhen
		}
		if = {
			limit = { has_heir = yes heir_culture = ROOT }
			set_heir_culture = empkhebhen
		}
		if = {
			limit = { has_consort = yes consort_culture = ROOT }
			set_consort_culture = empkhebhen
		}
		
		set_country_flag = new_kheionai_culture
		
		change_primary_culture = empkhebhen
		
		add_country_modifier = {
			name = birth_of_a_new_people 
			duration = 3650
		}
	}
	
	option = { # Besolaki
		name = kheionai.6.a
		trigger = {
			OR = {
				tag = G54
				was_tag = G54
			}
		}
		
		ai_chance = {
			factor = 1000
		}
		
		hidden_effect = {
			every_core_province = { 
				limit = {
					culture_group = ROOT
				}
				change_culture = besolabhen
			}
		}
		
		if = {
			limit = { ruler_culture = ROOT }
			set_ruler_culture = besolabhen
		}
		if = {
			limit = { has_heir = yes heir_culture = ROOT }
			set_heir_culture = besolabhen
		}
		if = {
			limit = { has_consort = yes consort_culture = ROOT }
			set_consort_culture = besolabhen
		}
		
		set_country_flag = new_kheionai_culture
		
		change_primary_culture = besolabhen
		
		add_country_modifier = {
			name = birth_of_a_new_people 
			duration = 3650
		}
	}
	
	option = { # Eneion
		name = kheionai.6.a
		trigger = {
			OR = {
				tag = G55
				was_tag = G55
			}
		}
		
		ai_chance = {
			factor = 1000
		}
		
		hidden_effect = {
			every_core_province = { 
				limit = {
					culture_group = ROOT
				}
				change_culture = enebhen
			}
		}
		
		if = {
			limit = { ruler_culture = ROOT }
			set_ruler_culture = enebhen
		}
		if = {
			limit = { has_heir = yes heir_culture = ROOT }
			set_heir_culture = enebhen
		}
		if = {
			limit = { has_consort = yes consort_culture = ROOT }
			set_consort_culture = enebhen
		}
		
		set_country_flag = new_kheionai_culture
		
		change_primary_culture = enebhen
		
		add_country_modifier = {
			name = birth_of_a_new_people 
			duration = 3650
		}
	}

    option = { # Deyeion
		name = kheionai.6.a
		trigger = {
			OR = {
				tag = G56
				was_tag = G56
			}
		}
		
		ai_chance = {
			factor = 1000
		}
		
		hidden_effect = {
			every_core_province = { 
				limit = {
					culture_group = ROOT
				}
				change_culture = deyebhen
			}
		}
		
		if = {
			limit = { ruler_culture = ROOT }
			set_ruler_culture = deyebhen
		}
		if = {
			limit = { has_heir = yes heir_culture = ROOT }
			set_heir_culture = deyebhen
		}
		if = {
			limit = { has_consort = yes consort_culture = ROOT }
			set_consort_culture = deyebhen
		}
		
		set_country_flag = new_kheionai_culture
		
		change_primary_culture = deyebhen
		
		add_country_modifier = {
			name = birth_of_a_new_people 
			duration = 3650
		}
	}
	
	option = { # Apikhoxi
		name = kheionai.6.a
		trigger = {
			OR = {
				tag = G57
				was_tag = G57
			}
		}
		
		ai_chance = {
			factor = 1000
		}
		
		hidden_effect = {
			every_core_province = { 
				limit = {
					culture_group = ROOT
				}
				change_culture = apikhobhen
			}
		}
		
		if = {
			limit = { ruler_culture = ROOT }
			set_ruler_culture = apikhobhen
		}
		if = {
			limit = { has_heir = yes heir_culture = ROOT }
			set_heir_culture = apikhobhen
		}
		if = {
			limit = { has_consort = yes consort_culture = ROOT }
			set_consort_culture = apikhobhen
		}
		
		set_country_flag = new_kheionai_culture
		
		change_primary_culture = apikhobhen
		
		add_country_modifier = {
			name = birth_of_a_new_people 
			duration = 3650
		}
	}
	
	option = { # Keyolion
		name = kheionai.6.a
		trigger = {
			OR = {
				tag = G58
				was_tag = G58
			}
		}
		
		ai_chance = {
			factor = 1000
		}
		
		hidden_effect = {
			every_core_province = { 
				limit = {
					culture_group = ROOT
				}
				change_culture = keyobhen
			}
		}
		
		if = {
			limit = { ruler_culture = ROOT }
			set_ruler_culture = keyobhen
		}
		if = {
			limit = { has_heir = yes heir_culture = ROOT }
			set_heir_culture = keyobhen
		}
		if = {
			limit = { has_consort = yes consort_culture = ROOT }
			set_consort_culture = keyobhen
		}
		
		set_country_flag = new_kheionai_culture
		
		change_primary_culture = keyobhen
		
		add_country_modifier = {
			name = birth_of_a_new_people 
			duration = 3650
		}
	}
	
	option = { # Anisikheion
		name = kheionai.6.a
		trigger = {
			OR = {
				tag = G59
				was_tag = G59
			}
		}
		
		ai_chance = {
			factor = 1000
		}
		
		hidden_effect = {
			every_core_province = { 
				limit = {
					culture_group = ROOT
				}
				change_culture = anisibhen
			}
		}
		
		if = {
			limit = { ruler_culture = ROOT }
			set_ruler_culture = anisibhen
		}
		if = {
			limit = { has_heir = yes heir_culture = ROOT }
			set_heir_culture = anisibhen
		}
		if = {
			limit = { has_consort = yes consort_culture = ROOT }
			set_consort_culture = anisibhen
		}
		
		set_country_flag = new_kheionai_culture
		
		change_primary_culture = anisibhen
		
		add_country_modifier = {
			name = birth_of_a_new_people 
			duration = 3650
		}
	}
	
	option = { # Amgremos
		name = kheionai.6.a
		trigger = {
			OR = {
				tag = G62
				was_tag = G62
			}
		}
		
		ai_chance = {
			factor = 1000
		}
		
		hidden_effect = {
			every_core_province = { 
				limit = {
					culture_group = ROOT
				}
				change_culture = amgrebhen
			}
		}
		
		if = {
			limit = { ruler_culture = ROOT }
			set_ruler_culture = amgrebhen
		}
		if = {
			limit = { has_heir = yes heir_culture = ROOT }
			set_heir_culture = amgrebhen
		}
		if = {
			limit = { has_consort = yes consort_culture = ROOT }
			set_consort_culture = amgrebhen
		}
		
		set_country_flag = new_kheionai_culture
		
		change_primary_culture = amgrebhen
		
		add_country_modifier = {
			name = birth_of_a_new_people 
			duration = 3650
		}
	}
	
	option = { # Resist cultural change
		name = kheionai.6.b
		
		ai_chance = {
			factor = 1
		}
		
		add_prestige = -10
		
		set_country_flag = no_formable_culture_shift
	}
}
	
#Devandi League events

#country_event = {
#	id = kheionai.6
#	title = kheionai.6.t
#	desc = kheionai.6.d
#	picture = ASSASSINATION_eventPicture
#	
#	is_triggered_only = yes
#	hidden = yes
#	
#	trigger = {
#	    culture_group = kheionai_ruinborn_elf
#		capital_scope = {
#			region = devand_region
#		}
#		is_free_or_tributary_trigger = yes
#		NOT = G52
#	}
#
#	mean_time_to_happen = {
#		months = 1
#	}
#
#   immediate = {
        	